{
    "prepare_queue": {
        "installed": [],
        "uninstalled": []
    },
    "config_munge": {
        "files": {}
    },
    "installed_plugins": {
        "cordova-plugin-ble-central": {
            "PACKAGE_NAME": "com.bmt.ble"
        },
        "cordova-plugin-whitelist": {
            "PACKAGE_NAME": "com.bmt.ble"
        },
        "cordova-plugin-dialogs": {
            "PACKAGE_NAME": "com.bmt.ble"
        },
        "cordova-plugin-geolocation": {
            "PACKAGE_NAME": "com.bmt.ble"
        },
        "cordova-plugin-device-motion": {
            "PACKAGE_NAME": "com.bmt.ble"
        },
        "cordova-plugin-device": {
            "PACKAGE_NAME": "com.bmt.ble"
        },
        "cordova-plugin-console": {
            "PACKAGE_NAME": "com.bmt.ble"
        },
        "cordova-plugin-splashscreen": {
            "PACKAGE_NAME": "com.bmt.ble"
        },
        "cordova-plugin-statusbar": {
            "PACKAGE_NAME": "com.bmt.ble"
        },
        "ionic-plugin-keyboard": {
            "PACKAGE_NAME": "com.bmt.ble"
        },
        "cordova-plugin-device-orientation": {
            "PACKAGE_NAME": "com.bmt.ble"
        },
        "cordova-plugin-media-capture": {
            "PACKAGE_NAME": "com.bmt.ble"
        },
        "cordova-plugin-network-information": {
            "PACKAGE_NAME": "com.bmt.ble"
        },
        "cordova-plugin-file": {
            "PACKAGE_NAME": "com.bmt.ble"
        }
    },
    "dependent_plugins": {
        "cordova-plugin-compat": {
            "PACKAGE_NAME": "com.bmt.ble"
        }
    }
}